"VertexLitGeneric"
{
	"$basetexture" "models/ninja/Raiden/Raiden_Hair_D"
	"$bumpmap" "models/ninja/Raiden/Raiden_Hair_N"
	"$model" "1"
	"$phong" "0"
	"$phongexponent" "5"
	"$phongboost"	"1"
	"$phongfresnelranges"	"[.5 3 48]"
	$alphatest 1
	"$basetexturealphaenvmapmask" 1
//	"$envmap" "env_cubemap"
	"$envmaptint" "[ .5 .5 .7 ]"
	"$envmapsaturation" ".01"
	"$envmapcontrast" "0.1"
 	"$envmapFresnel" "1"
}
