"VertexlitGeneric"
{
	"$basetexture" "models/collabwave/presidents/obama/body_diffuse"
	"$bumpmap" "models/collabwave/presidents/obama/body_normal"
	"$phong" 1
	"$phongexponent"			1
	"$phongexponenttexture" ""
	"$phongboost"				2.0
	"$phongfresnelranges"		"[0 0.5 1]"
	"$normalmapalphaenvmapmask"	1
	"$nocull"		1
}
