"VertexLitGeneric"
{
	"$basetexture" "models\props_skangus\busters\demo_bot_inferno"
//	"$bumpmap" "models\bots\classes\bot_blank_normal"
	
	"$phong" "1"
//	"$phongexponent" "200"
	"$phongboost" "4"	
	"$phongfresnelranges"	"[.5 .7 1]"
	"$halflambert" "0"
	"$phongexponenttexture" "models\bots\demo\demo_bot_exp"

	"$lightwarptexture" "models\lightwarps\robot_lightwarp"

	"$basemapalphaphongmask" "1"
	
	"$rimlight" "1"						
	"$rimlightexponent" "1"				
	"$rimlightboost" "2"
	"$rimmask" "1"


	"$detail" "effects/tiledfire/fireLayeredSlowTiled512.vtf"	
	"$detailscale" "5"
	"$detailblendfactor" .01
	"$detailblendmode" 6

	"$yellow" "0"
	"$one" "1"

	// Cloaking
	"$cloakPassEnabled" "1"

	"Proxies"
	{
		"spy_invis"
		{
		}
		"AnimatedTexture"
		{
			"animatedtexturevar" "$detail"
			"animatedtextureframenumvar" "$detailframe"
			"animatedtextureframerate" 30
		}
		"BurnLevel"
		{
			"resultVar" "$detailblendfactor"
		}
		"YellowLevel"
		{
			"resultVar" "$yellow"
		}
		"Equals"
		{
			"srcVar1"  "$yellow"
			"resultVar" "$color2"
		}

	}
}
