"VertexlitGeneric"
{
	"$basetexture" "models/alejenus/genshinimpact/raidenshogun/body_tex"
	"$surfaceprop" "Flesh"

	$lightwarptexture "models/alejenus/genshinimpact/raidenshogun/warp"
	$alphatest 0

	$phong 1
                "$phongfresnelranges"    "[0.05 0.115 0.945]"
	$phongalbedotint 1
                $phongtint "[ 1 0.7 0.4]"
	$phongexponent 10
	$phongboost 0.0001
	$phongalbedoboost 4

	$rimlight 1
	$rimlightexponent 15
	$rimlightboost 0.5
	$rimlightmask 1

}
